module IM-RPC

go 1.18

require (
	github.com/bwmarrin/snowflake v0.3.0
	github.com/gin-gonic/gin v1.7.7
	github.com/go-redis/redis/v8 v8.11.4
	github.com/golang/protobuf v1.5.2
	github.com/gorilla/websocket v1.5.0
	github.com/rcrowley/go-metrics v0.0.0-20201227073835-cf1acfcdf475
	github.com/rpcxio/rpcx-etcd v0.1.0
	github.com/russross/blackfriday/v2 v2.1.0
	github.com/smallnest/rpcx v1.7.3
	go.etcd.io/etcd/client/v3 v3.5.1
	golang.org/x/crypto v0.0.0-20211215153901-e495a2d5b3d3
	golang.org/x/net v0.0.0-20211216030914-fe4d6282115f
	golang.org/x/sync v0.0.0-20210220032951-036812b2e83c
	google.golang.org/protobuf v1.28.0
	gorm.io/driver/mysql v1.3.2
	gorm.io/gorm v1.23.2
)

require (
	github.com/akutz/memconn v0.1.0 // indirect
	github.com/apache/thrift v0.15.0 // indirect
	github.com/armon/go-metrics v0.3.10 // indirect
	github.com/cenk/backoff v2.2.1+incompatible // indirect
	github.com/cenkalti/backoff v2.2.1+incompatible // indirect
	github.com/cespare/xxhash/v2 v2.1.2 // indirect
	github.com/cheekybits/genny v1.0.0 // indirect
	github.com/coreos/go-semver v0.3.0 // indirect
	github.com/coreos/go-systemd/v22 v22.3.2 // indirect
	github.com/dgryski/go-jump v0.0.0-20211018200510-ba001c3ffce0 // indirect
	github.com/dgryski/go-rendezvous v0.0.0-20200823014737-9f7001d12a5f // indirect
	github.com/edwingeng/doublejump v0.0.0-20210724020454-c82f1bcb3280 // indirect
	github.com/facebookgo/clock v0.0.0-20150410010913-600d898af40a // indirect
	github.com/fatih/color v1.13.0 // indirect
	github.com/fsnotify/fsnotify v1.5.1 // indirect
	github.com/gin-contrib/sse v0.1.0 // indirect
	github.com/go-logr/logr v1.2.2 // indirect
	github.com/go-logr/stdr v1.2.2 // indirect
	github.com/go-ping/ping v0.0.0-20211130115550-779d1e919534 // indirect
	github.com/go-playground/locales v0.13.0 // indirect
	github.com/go-playground/universal-translator v0.17.0 // indirect
	github.com/go-playground/validator/v10 v10.4.1 // indirect
	github.com/go-sql-driver/mysql v1.6.0 // indirect
	github.com/go-task/slim-sprig v0.0.0-20210107165309-348f09dbbbc0 // indirect
	github.com/gogo/protobuf v1.3.2 // indirect
	github.com/golang/snappy v0.0.4 // indirect
	github.com/google/btree v1.0.0 // indirect
	github.com/google/uuid v1.3.0 // indirect
	github.com/grandcat/zeroconf v1.0.0 // indirect
	github.com/hashicorp/consul/api v1.12.0 // indirect
	github.com/hashicorp/errwrap v1.1.0 // indirect
	github.com/hashicorp/go-cleanhttp v0.5.2 // indirect
	github.com/hashicorp/go-hclog v1.0.0 // indirect
	github.com/hashicorp/go-immutable-radix v1.3.1 // indirect
	github.com/hashicorp/go-multierror v1.1.1 // indirect
	github.com/hashicorp/go-rootcerts v1.0.2 // indirect
	github.com/hashicorp/golang-lru v0.5.4 // indirect
	github.com/hashicorp/serf v0.9.6 // indirect
	github.com/jinzhu/inflection v1.0.0 // indirect
	github.com/jinzhu/now v1.1.4 // indirect
	github.com/json-iterator/go v1.1.12 // indirect
	github.com/juju/ratelimit v1.0.1 // indirect
	github.com/julienschmidt/httprouter v1.3.0 // indirect
	github.com/kavu/go_reuseport v1.5.0 // indirect
	github.com/klauspost/cpuid/v2 v2.0.9 // indirect
	github.com/klauspost/reedsolomon v1.9.15 // indirect
	github.com/leodido/go-urn v1.2.0 // indirect
	github.com/lucas-clemente/quic-go v0.24.0 // indirect
	github.com/marten-seemann/qtls-go1-16 v0.1.4 // indirect
	github.com/marten-seemann/qtls-go1-17 v0.1.0 // indirect
	github.com/mattn/go-colorable v0.1.12 // indirect
	github.com/mattn/go-isatty v0.0.14 // indirect
	github.com/miekg/dns v1.1.45 // indirect
	github.com/mitchellh/go-homedir v1.1.0 // indirect
	github.com/mitchellh/mapstructure v1.4.3 // indirect
	github.com/modern-go/concurrent v0.0.0-20180306012644-bacd9c7ef1dd // indirect
	github.com/modern-go/reflect2 v1.0.2 // indirect
	github.com/nxadm/tail v1.4.8 // indirect
	github.com/onsi/ginkgo v1.16.5 // indirect
	github.com/philhofer/fwd v1.1.1 // indirect
	github.com/pkg/errors v0.9.1 // indirect
	github.com/rpcxio/libkv v0.5.1-0.20210420120011-1fceaedca8a5 // indirect
	github.com/rs/cors v1.8.2 // indirect
	github.com/rubyist/circuitbreaker v2.2.1+incompatible // indirect
	github.com/samuel/go-zookeeper v0.0.0-20201211165307-7117e9ea2414 // indirect
	github.com/smallnest/quick v0.0.0-20210406061658-4bf95e372fbd // indirect
	github.com/soheilhy/cmux v0.1.5 // indirect
	github.com/templexxx/cpufeat v0.0.0-20180724012125-cef66df7f161 // indirect
	github.com/templexxx/xor v0.0.0-20191217153810-f85b25db303b // indirect
	github.com/tinylib/msgp v1.1.6 // indirect
	github.com/tjfoc/gmsm v1.4.1 // indirect
	github.com/ugorji/go/codec v1.1.7 // indirect
	github.com/valyala/bytebufferpool v1.0.0 // indirect
	github.com/valyala/fastrand v1.1.0 // indirect
	github.com/vmihailenco/msgpack/v5 v5.3.5 // indirect
	github.com/vmihailenco/tagparser/v2 v2.0.0 // indirect
	github.com/xtaci/kcp-go v5.4.20+incompatible // indirect
	go.etcd.io/etcd/api/v3 v3.5.1 // indirect
	go.etcd.io/etcd/client/pkg/v3 v3.5.1 // indirect
	go.etcd.io/etcd/client/v2 v2.305.1 // indirect
	go.opentelemetry.io/otel v1.3.0 // indirect
	go.opentelemetry.io/otel/trace v1.3.0 // indirect
	go.uber.org/atomic v1.7.0 // indirect
	go.uber.org/multierr v1.6.0 // indirect
	go.uber.org/zap v1.17.0 // indirect
	golang.org/x/mod v0.5.1 // indirect
	golang.org/x/sys v0.0.0-20220310020820-b874c991c1a5 // indirect
	golang.org/x/text v0.3.7 // indirect
	golang.org/x/tools v0.1.8 // indirect
	golang.org/x/xerrors v0.0.0-20200804184101-5ec99f83aff1 // indirect
	google.golang.org/genproto v0.0.0-20211208223120-3a66f561d7aa // indirect
	google.golang.org/grpc v1.42.0 // indirect
	gopkg.in/tomb.v1 v1.0.0-20141024135613-dd632973f1e7 // indirect
	gopkg.in/yaml.v2 v2.4.0 // indirect
)
